VP/counter_2/Traces.vcd
$date
     Jun 12, 2024       15:57:38
$end

$version
 SystemC 2.3.3-Accellera --- May 31 2024 13:28:47
$end

$timescale
     1 ps
$end

$scope module SystemC $end
$var wire    1  aaaaa  clock       $end
$var wire    1  aaaab  reset       $end
$var wire    8  aaaac  address [7:0]  $end
$var wire    8  aaaad  data_in [7:0]  $end
$var wire    8  aaaae  data_out [7:0]  $end
$var wire    1  aaaaf  write_en       $end
$var wire    1  aaaag  read_en       $end
$var wire    1  aaaah  irq0       $end
$var wire    1  aaaai  irq1       $end
$var wire    8  aaaaj  TIMER_CONTROL_REG [7:0]  $end
$var wire    8  aaaak  TIMER_VALUE_REG [7:0]  $end
$var wire    8  aaaal  TIMER_COMPARE_REG [7:0]  $end
$var wire    8  aaaam  TIMER_IRQ_STATUS_REG_BIT [7:0]  $end
$var wire    1  aaaan  TIMER_CONTROL_CMP_BIT       $end
$var wire    1  aaaao  TIMER_CONTROL_EN_BIT       $end
$var wire    1  aaaap  TIMER_CONTROL_OV_BIT       $end
$upscope $end
$enddefinitions  $end

$comment
All initial values are dumped below at time 0 sec = 0 timescale units.
$end

$dumpvars
1aaaaa
1aaaab
b0 aaaac
b0 aaaad
b0 aaaae
0aaaaf
0aaaag
0aaaah
0aaaai
b0 aaaaj
b0 aaaak
b0 aaaal
b0 aaaam
0aaaan
0aaaao
0aaaap
$end

#500
0aaaaa

#1000
1aaaaa
0aaaab
b111 aaaad
1aaaaf
b111 aaaaj
b1 aaaak
1aaaan
1aaaao
1aaaap

#1500
0aaaaa

#2000
1aaaaa
b1000 aaaac
b10000 aaaad
b10 aaaak
b10000 aaaal

#2500
0aaaaa

#3000
1aaaaa
b100 aaaac
b10 aaaae
0aaaaf
1aaaag
b11 aaaak

#3500
0aaaaa

#4000
1aaaaa
b11 aaaae
b100 aaaak

#4500
0aaaaa

#5000
1aaaaa
b100 aaaae
b101 aaaak

#5500
0aaaaa

#6000
1aaaaa
b101 aaaae
b110 aaaak

#6500
0aaaaa

#7000
1aaaaa
b110 aaaae
b111 aaaak

#7500
0aaaaa

#8000
1aaaaa
b111 aaaae
b1000 aaaak

#8500
0aaaaa

#9000
1aaaaa
b1000 aaaae
b1001 aaaak

#9500
0aaaaa

#10000
1aaaaa
b1001 aaaae
b1010 aaaak

#10500
0aaaaa

#11000
1aaaaa
b1010 aaaae
b1011 aaaak

#11500
0aaaaa

#12000
1aaaaa
b1011 aaaae
b1100 aaaak

#12500
0aaaaa

#13000
1aaaaa
b1100 aaaae
b1101 aaaak

#13500
0aaaaa

#14000
1aaaaa
b1101 aaaae
b1110 aaaak

#14500
0aaaaa

#15000
1aaaaa
b1110 aaaae
b1111 aaaak

#15500
0aaaaa

#16000
1aaaaa
b1111 aaaae
1aaaah
b0 aaaak
b1 aaaam

#16500
0aaaaa

#17000
1aaaaa
b0 aaaae
0aaaah
b1 aaaak

#17500
0aaaaa

#18000
1aaaaa
b1 aaaae
b10 aaaak

#18500
0aaaaa

#19000
1aaaaa
b10 aaaae
b11 aaaak

#19500
0aaaaa

#20000
1aaaaa
b11 aaaae
b100 aaaak

#20500
0aaaaa

#21000
1aaaaa
b100 aaaae
b101 aaaak

#21500
0aaaaa

#22000
1aaaaa
b101 aaaae
b110 aaaak

#22500
0aaaaa

#23000
1aaaaa
b0 aaaac
b0 aaaad
1aaaaf
0aaaag
b0 aaaaj
0aaaao

#23500
0aaaaa

#24000
1aaaaa
b100 aaaac
b110 aaaae
0aaaaf
1aaaag

